{
    "name": "region_sales", 
    "title": "Region sales", 
    "template_name": "region_sales.html", 
    "post_action_group": null, 
    "custom_attributes": {
        "region_model_name": {
            "name": "region_model_name", 
            "title": "Region model name", 
            "default": "region", 
            "required": true, 
            "ui_element": "select", 
            "placeholder": "Region model name", 
            "options": "{default_model_names}"
        },
        "order_model": {
            "name": "order_model", 
            "title": "Order model name", 
            "required": false, 
            "ui_element": "select", 
            "placeholder": "Order model name", 
            "options": "{default_model_names}"
        },
        "region_attribute":{
            "name" : "region_attribute",
            "title" : "Region attribute",
            "placeholder" : "Region attribute in order model",
            "required" : false,
            "ui_element": "select", 
            "options": "/attributes/{order_model}/name"
        },
        "date_attribute":{
            "name" : "date_attribute",
            "title" : "Date attribute",
            "placeholder" : "Date attribute in order model",
            "required" : false,
            "ui_element": "select", 
            "options": "/attributes/{order_model}/name"
        },
        "resolution":{
            "name" : "resolution",
            "title" : "Resolution",
            "placeholder" : "Resolution",
            "required" : false,
            "ui_element": "select", 
            "options": ["2hours_of_day", "monthly", "daily", "year", "quarter_of_day", "day_of_week", "month", "half_of_day", "week_of_year", "hour_of_day", "month_of_year", "4hours_of_day", "3hours_of_day", "day", "weekly"]
        },
        "aggregate_function":{
            "name" : "aggregate_function",
            "title" : "Aggregate function",
            "placeholder" : "Aggregate function",
            "required" : false,
            "ui_element": "select", 
            "options": ["sum","count"]
        },
        "over_attribute":{
            "name" : "over_attribute",
            "title" : "Aggregate function applies on",
            "placeholder" : "Aggregate function",
            "required" : false,
            "ui_element": "select", 
            "options": "/attributes/{order_model}/name"
        }, 
        "card_header": {
            "name": "card_header", 
            "title": "Card header", 
            "default": "Region Sales Metrics", 
            "type": "text", 
            "required": true, 
            "ui_element": "text", 
            "placeholder": "Show Header in Card"
        }, 
        "aggregate_function": {
            "name": "aggregate_function", 
            "title": "Aggregate function type", 
            "default": "sum", 
            "type": "text", 
            "required": true, 
            "ui_element": "select", 
            "placeholder": "Aggregate function type", 
            "options": [
                "sum", 
                "count"
            ]
        }
    }, 
    "message": "Please update prefrences to your perspective.", 
    "pre_action_group": null
}
