{
    "custom_attributes": {
        "_date_attr": {
            "name": "_date_attr",
            "options": "{interaction_datetime_attributes}",
            "title": "Date Attr",
            "type": "text",
            "ui_element": "select"
        },
        "_image_attr": {
            "default": "{product_card_price_default}",
            "name": "_image_attr",
            "options": "{product_card_image}",
            "title": "Image Attr",
            "type": "text",
            "ui_element": "select"
        },
        "_main_image": {
            "default": "{product_card_image_default}",
            "name": "_main_image",
            "options": "{product_card_image}",
            "title": "Main Image",
            "type": "text",
            "ui_element": "select"
        },
        "_pdf": {
            "default": true,
            "name": "_pdf",
            "title": "Pdf",
            "type": "bool",
            "ui_element": "switch"
        },
        "_price_attr": {
            "default": "{interaction_net_amount_default}",
            "name": "_price_attr",
            "options": "{interaction_price_attributes}",
            "title": "Price Attr",
            "type": "text",
            "ui_element": "select"
        },
        "_quantity_attr": {
            "default": "{interaction_qty_default}",
            "name": "_quantity_attr",
            "options": "{interaction_qty_attributes}",
            "title": "Quantity Attr",
            "type": "text",
            "ui_element": "select"
        },
        "_stage_attr": {
            "default": "__ALL__",
            "name": "_stage_attr",
            "title": "Stage Attr",
            "type": "text",
            "ui_element": "select"
        },
        "_subtitle_attr": {
            "default": "{product_sub_header_default}",
            "name": "_subtitle_attr",
            "options": "{product_attributes}",
            "title": "Subtitle Attr",
            "type": "text",
            "ui_element": "select"
        },
        "_title_attr": {
            "default": "{product_name_default}",
            "name": "_title_attr",
            "options": "{product_attributes}",
            "title": "Title Attr",
            "type": "text",
            "ui_element": "select"
        },
        "_view_attrs": {
            "default": "{product_filter_attributes}",
            "name": "_view_attrs",
            "options": "{product_attributes}",
            "title": "View Attrs",
            "type": "list",
            "ui_element": "multiselect"
        },
        "bcc": {
            "name": "bcc",
            "title": "Bcc",
            "type": "text",
            "ui_element": "text"
        },
        "cc": {
            "name": "cc",
            "title": "Cc",
            "type": "text",
            "ui_element": "text"
        },
        "message": {
            "name": "message",
            "title": "Message",
            "type": "text",
            "ui_element": "text"
        },
        "title": {
            "name": "title",
            "title": "Title",
            "type": "text",
            "ui_element": "text"
        }
    },
    "message": null,
    "name": "catalog",
    "post_action_group": null,
    "pre_action_group": null,
    "template_name": "catalog_mail_template.html",
    "title": "Catalog/Quotation/Invoice Settings"
}
