{
    "name": "donut_chart_products", 
    "title": "donut chart for products", 
    "template_name": "donut_chart_products.html", 
    "post_action_group": null, 
    "custom_attributes": {
        "interaction_stage_name": {
            "name": "interaction_stage_name", 
            "title": "Interaction Stage Name", 
            "required": true, 
            "atype": "text", 
            "ui_element": "select", 
            "placeholder": "name of interaction stage",
            "options":"{interaction_stage_names}"
        }, 
        "default_options": {
            "name": "default_options", 
            "title": "Default Options", 
            "required": true, 
            "atype": "text", 
            "ui_element": "select", 
            "placeholder": "default option for chart out of available options",
            "options":"{interaction_price_attributes}"
        }, 
        "periods_to_show": {
            "name": "periods_to_show", 
            "title": "Time Periods to Show", 
            "default": [
                "all time", 
                "yearly", 
                "monthly", 
                "weekly"
            ], 
            "required": true, 
            "atype": "stringlist", 
            "ui_element": "multiselect", 
            "placeholder": "time periods for this perspective",
            "options":[ 
                "all time", 
                "yearly", 
                "monthly", 
                "weekly"]
        },
        "join_options":{
            "name": "join_options", 
            "title": "Join Attributes", 
            "required": true, 
            "atype": "stringlist", 
            "ui_element": "multiselect", 
            "placeholder": "available  attributes for joining in chart",
            "options":"{product_attributes}"
        },

        "default_join_option": {
            "name": "default_join_option", 
            "title": "Default Join Attribute", 
            "required": true, 
            "atype": "text", 
            "ui_element": "select", 
            "placeholder": "default attribute for joining in chart",
            "options":"{product_attributes}"
        }, 

        "datetime_attribute": {
            "name": "datetime_attribute", 
            "title": "Interactons Datetime Attribute", 
            "required": true, 
            "atype": "text",
            "default":"updated",
            "ui_element": "select", 
            "placeholder": "Attribute denoting datetime in interactions", 
            "options": "{interaction_datetime_attributes}"
        },

        "available_options": {
            "name": "available_options", 
            "title": "Available Options", 
            "required": true, 
            "atype": "stringlist", 
            "ui_element": "multiselect", 
            "placeholder": "available option for chart",
            "options":"{interaction_price_attributes}"
        }, 


        "default_period": {
            "name": "default_period", 
            "title": "Default Time Period", 
            "default": "yearly", 
            "required": true, 
            "ui_element": "select", 
            "placeholder": "default time period for chart",
            "options":[ 
                "all time", 
                "yearly", 
                "monthly", 
                "weekly"
            ]
        },

        "default_product_count": {
            "name": "default_product_count", 
            "title": "No of Products to Show", 
            "default": "10", 
            "required": true, 
            "ui_element": "select", 
            "placeholder": "no of products for donut chart",
            "options":["2","3","5","10","15","20"]
        }
    }, 
    "message": "Test message", 
    "pre_action_group": null
}