{
    "api_key": "ZGluZXNoQGkyY2UgaW4xNDg3MTQ5MDA2IDA2",
    "user_id": "dinesh@i2ce.in",
    "api_key_expiry": {
        "__datetime__": null,
        "year": 2017,
        "month": 3,
        "day": 18,
        "hour": 14,
        "minute": 26,
        "second": 46,
        "microsecond": 64000,
        "isoformat": "2017-03-18T14:26:46.064000"
    },
    "validate_expiry": {
        "__datetime__": null,
        "year": 2017,
        "month": 2,
        "day": 22,
        "hour": 14,
        "minute": 26,
        "second": 46,
        "microsecond": 64000,
        "isoformat": "2017-02-22T14:26:46.064000"
    },
    "role": "admin",
    "enterprise_id": "dinesh",
    "password": "$2b$12$nkADn180gJMcOyMcA2kYFelR9FHCbu4eAP309sT6l3dGxH3bFhPP2", 
    "validated": true
}
