[
    {
        "task": "subscriptions",
        "name":"subscriptions",
        "schedule": {
            "minute": 0,
            "hour": 0
        }
    },
    {
        "task": "set_engagement_stage",
        "name":"set_engagement_stage",
        "schedule": {
            "minute": 0,
            "hour": 0
        }
    },
    {
        "task": "cleanup_cache",
        "name":"cleanup_cache",
        "schedule": {
            "minute": 0
        }
    },
    {
        "task": "set_weights",
        "name":"set_weights",
        "schedule": {
            "minute": 0,
            "hour": 0
        }
    },
    {
        "task": "do_recommendations",
        "name":"do_recommendations",
        "schedule": {
            "minute": 0,
            "hour": 0
        },
        "kwargs": {
            "perspective_name": "mobile_application",
            "limit": "no_of_recommendations",
            "second_limit": "count_after_next_recommendation",
            "category_hierarchy": "product_category_hierarchy"
        }
    }
]

