{
    "allow_anonymous_view": false,
    "attached_matchers": [],
    "attributes": [
        {
            "name": "language",
            "type": "category",
            "required": true
        },{
            "name": "word",
            "type": "name",
            "indexed": true,
            "required": true
        },
        {
            "atype": [
                "unicode"
            ],
            "auto_updater": false,
            "conversation": [],
            "converter": {
                "function": "to_unicode"
            },
            "default": {
                "args": [
                    "word",
                    "language"
                ],
                "function": "make_uuid"
            },
            "force_update": false,
            "id": true,
            "name": "word_id",
            "option_others": false,
            "options": [],
            "placeholder": "Word Id",
            "required": true,
            "title": "Word Id",
            "type": "text",
            "ui_element": "text",
            "unique": false,
            "verbs": [],
            "weight": 0.0
        },{
            "name": "length",
            "type": "number"
        },{
            "name": "docs",
            "type": "list"
        },{
            "name": "lword",
            "type": "list"
        },{
            "name": "sword",
            "type": "text"
        },{
            "name" : "frequency",
            "type": "number"
        }
    ],
    "data_type": "object_concurrency_large",
    "expand_attributes": true,
    "images": [],
    "name": "dictionary",
    "title": "Dictionary"
}
