{
    "actions": {},
    "allow_anonymous_view": false,
    "attached_matchers": [],
    "attributes": [
        {
            "name": "error_log_dest",
            "type": "nested_object"
        },
        {
            "atype": [
                "unicode"
            ],
            "auto_updater": true,
            "conversation": [],
            "converter": {
                "function": "to_unicode"
            },
            "default": {
                "args": [
                    "name"
                ],
                "function": "name_to_id",
                "kwargs": {
                    "attribute_join": "_",
                    "case": "lower",
                    "is_unique": false
                }
            },
            "force_update": false,
            "id": true,
            "name": "enterprise_id",
            "option_others": false,
            "options": [],
            "placeholder": "Enterprise Id",
            "required": true,
            "title": "Enterprise ID",
            "type": "text",
            "ui_element": "text",
            "unique": false,
            "verbs": [],
            "weight": 0.0
        },
        {
            "atype": [
                "datetime"
            ],
            "auto_updater": true,
            "conversation": [],
            "converter": {
                "args": [],
                "function": "to_datetime"
            },
            "default": {
                "function": "now"
            },
            "force_update": false,
            "id": false,
            "jsoner": {
                "args": [],
                "function": "from_datetime"
            },
            "name": "created_at",
            "option_others": false,
            "options": [],
            "placeholder": "Created At",
            "required": false,
            "title": "Created At",
            "type": "datetime",
            "ui_element": "datetime",
            "unique": false,
            "verbs": []
        },
        {
            "atype": [
                "unicode"
            ],
            "auto_updater": false,
            "conversation": [],
            "converter": {
                "function": "to_unicode"
            },
            "default": {
                "function": "raise_error"
            },
            "force_update": false,
            "id": false,
            "name": "name",
            "option_others": false,
            "options": [],
            "placeholder": "Name of the enterprise",
            "required": true,
            "title": "Enterprise Name",
            "type": "name",
            "ui_element": "text",
            "unique": true,
            "verbs": [],
            "weight": 0.0
        },
        {
            "atype": [
                "unicode"
            ],
            "auto_updater": false,
            "constraint": {
                "function": "email_validator"
            },
            "conversation": [],
            "converter": {
                "function": "to_unicode"
            },
            "default": {
                "function": "raise_error"
            },
            "force_update": false,
            "id": false,
            "name": "email",
            "option_others": false,
            "options": [],
            "placeholder": "Email",
            "required": true,
            "title": "Email",
            "type": "email",
            "ui_element": "email",
            "unique": true,
            "verbs": [],
            "weight": 0.0
        },
        {
            "atype": [
                "unicode"
            ],
            "auto_updater": false,
            "constraint": {
                "function": "phone_validator"
            },
            "conversation": [],
            "converter": {
                "function": "to_unicode"
            },
            "default": {
                "function": "raise_error"
            },
            "force_update": false,
            "id": false,
            "name": "phone_number",
            "option_others": false,
            "options": [],
            "placeholder": "Phone Number",
            "required": true,
            "title": "Phone Number",
            "type": "phone_number",
            "ui_element": "tel",
            "unique": false,
            "verbs": []
        },
        {
            "atype": [
                "unicode"
            ],
            "auto_updater": false,
            "conversation": [],
            "converter": {
                "function": "to_unicode"
            },
            "force_update": false,
            "id": false,
            "name": "enterprise_description",
            "option_others": false,
            "options": [],
            "placeholder": "Enterprise Description",
            "required": false,
            "title": "Enterprise Description",
            "type": "description",
            "ui_element": "textarea",
            "unique": false,
            "verbs": []
        },
        {
            "atype": [
                "unicode"
            ],
            "auto_updater": false,
            "conversation": [],
            "converter": {
                "function": "to_unicode"
            },
            "force_update": false,
            "id": false,
            "name": "enterprise_logo",
            "option_others": false,
            "options": [],
            "placeholder": "Enterprise Logo",
            "required": false,
            "title": "Enterprise Logo",
            "type": "image",
            "ui_element": "image",
            "unique": false,
            "verbs": [],
            "weight": 0.0
        },
        {
            "atype": [
                "unicode"
            ],
            "auto_updater": false,
            "conversation": [],
            "converter": {
                "function": "to_unicode"
            },
            "default": "common",
            "force_update": false,
            "id": false,
            "name": "deployment_scenario",
            "option_others": false,
            "options": {
                "common": "Others",
                "digital_signage": "Digital Signage",
                "distributor": "Distributor/Retailer Network",
                "hyper_local_marketing": "Hyper-Local Marketing",
                "magento": "E-Commerce (Magento)",
                "marbles_and_granites": "Marbles, Granites and Stones Experience Centre",
                "occ": "Outbound Calling",
                "store": "Retail Stores",
                "tiles": "Tiles and Sanitary Ware Showroom"
            },
            "placeholder": "Deployment Scenario",
            "required": false,
            "title": "Sales Channel/Category",
            "type": "category",
            "ui_element": "select",
            "unique": false,
            "verbs": []
        },
        {
            "atype": [
                "unicode"
            ],
            "auto_updater": true,
            "conversation": [],
            "converter": {
                "function": "to_unicode"
            },
            "default": {
                "function": "update_signup_api_key"
            },
            "force_update": false,
            "id": false,
            "name": "signup_api_key",
            "option_others": false,
            "options": [],
            "placeholder": "Signup Api Key",
            "required": false,
            "title": "Customer Signup api key",
            "type": "text",
            "ui_element": "text",
            "unique": false,
            "verbs": []
        },
        {
            "atype": [
                "float"
            ],
            "auto_updater": true,
            "conversation": [],
            "converter": {
                "function": "to_float"
            },
            "default": 0,
            "force_update": false,
            "id": false,
            "jsoner": {
                "function": "from_float"
            },
            "name": "total_recharged",
            "option_others": false,
            "options": [],
            "placeholder": "Total Recharged",
            "required": false,
            "title": "Total amount credited (INR)",
            "type": "currency",
            "ui_element": "number",
            "unique": false,
            "verbs": []
        },
        {
            "atype": [
                "float"
            ],
            "auto_updater": true,
            "conversation": [],
            "converter": {
                "function": "to_float"
            },
            "default": 6000,
            "force_update": false,
            "id": false,
            "jsoner": {
                "function": "from_float"
            },
            "name": "credits_left",
            "option_others": false,
            "options": [],
            "placeholder": "Credits Left",
            "required": false,
            "title": "Remaining Amount (INR)",
            "type": "currency",
            "ui_element": "number",
            "unique": false,
            "verbs": []
        },
        {
            "atype": [
                "float"
            ],
            "auto_updater": true,
            "conversation": [],
            "converter": {
                "function": "to_float"
            },
            "default": 0,
            "force_update": false,
            "id": false,
            "jsoner": {
                "function": "from_float"
            },
            "name": "total_spent",
            "option_others": false,
            "options": [],
            "placeholder": "Total Spent",
            "required": false,
            "title": "Total Money Spent (INR)",
            "type": "currency",
            "ui_element": "number",
            "unique": false,
            "verbs": []
        },
        {
            "atype": [
                "unicode"
            ],
            "auto_updater": false,
            "conversation": [],
            "converter": {
                "function": "to_unicode"
            },
            "force_update": false,
            "id": false,
            "name": "enterprise_url",
            "option_others": false,
            "options": [],
            "placeholder": "Enterprise Url",
            "required": false,
            "title": "Enterprise Url",
            "type": "url",
            "ui_element": "url",
            "unique": false,
            "verbs": [],
            "weight": 0.0
        },
        {
            "atype": [
                "dict"
            ],
            "auto_updater": true,
            "conversation": [],
            "converter": {
                "function": "to_dict"
            },
            "default": {
                "function": "get_rates"
            },
            "force_update": false,
            "id": false,
            "jsoner": {
                "function": "from_dict"
            },
            "name": "pricing",
            "option_others": false,
            "options": [],
            "placeholder": "Pricing",
            "required": false,
            "title": "Pricing",
            "type": "nested_object",
            "ui_element": "card",
            "unique": false,
            "verbs": []
        },
        {
            "adder": {
                "function": "list_adder"
            },
            "atype": [
                "objectlist"
            ],
            "auto_updater": true,
            "conversation": [],
            "default": {
                "function": "get_jobs"
            },
            "dict_keys": [
                "task",
                "name",
                "schedule",
                "expires"
            ],
            "force_update": false,
            "id": false,
            "name": "jobs",
            "option_others": false,
            "options": [],
            "placeholder": "Jobs",
            "required": false,
            "title": "Jobs",
            "type": "object_list",
            "ui_element": "table",
            "unique": false,
            "verbs": []
        },
        {
            "atype": [
                "unicode"
            ],
            "auto_updater": true,
            "conversation": [],
            "converter": {
                "function": "to_unicode"
            },
            "default": "customer",
            "force_update": false,
            "id": false,
            "name": "customer_model_name",
            "option_others": false,
            "options": [],
            "placeholder": "Customer Model Name",
            "required": false,
            "title": "Customer Model Name",
            "type": "text",
            "ui_element": "text",
            "unique": false,
            "verbs": []
        },
        {
            "atype": [
                "unicode"
            ],
            "auto_updater": true,
            "conversation": [],
            "converter": {
                "function": "to_unicode"
            },
            "default": "product",
            "force_update": false,
            "id": false,
            "name": "product_model_name",
            "option_others": false,
            "options": [],
            "placeholder": "Product Model Name",
            "required": false,
            "title": "Product Model Name",
            "type": "text",
            "ui_element": "text",
            "unique": false,
            "verbs": []
        },
        {
            "atype": [
                "unicode"
            ],
            "auto_updater": true,
            "conversation": [],
            "converter": {
                "function": "to_unicode"
            },
            "default": "interaction",
            "force_update": false,
            "id": false,
            "name": "interaction_model_name",
            "option_others": false,
            "options": [],
            "placeholder": "Interaction Model Name",
            "required": false,
            "title": "Interaction Model Name",
            "type": "text",
            "ui_element": "text",
            "unique": false,
            "verbs": []
        },
        {
            "atype": [
                "unicode"
            ],
            "auto_updater": true,
            "conversation": [],
            "converter": {
                "function": "to_unicode"
            },
            "default": "",
            "force_update": false,
            "id": false,
            "name": "connection_model_name",
            "option_others": false,
            "options": [],
            "placeholder": "Connection Model Name",
            "required": false,
            "title": "Connection Model Name",
            "type": "text",
            "ui_element": "text",
            "unique": false,
            "verbs": []
        },
        {
            "atype": [
                "unicode"
            ],
            "auto_updater": true,
            "conversation": [],
            "converter": {
                "function": "to_unicode"
            },
            "default": "store",
            "force_update": false,
            "id": false,
            "name": "store_model_name",
            "option_others": false,
            "options": [],
            "placeholder": "Store Model Name",
            "required": false,
            "title": "Store Model Name",
            "type": "text",
            "ui_element": "text",
            "unique": false,
            "verbs": []
        },
        {
            "atype": [
                "dict"
            ],
            "auto_updater": true,
            "conversation": [],
            "converter": {
                "function": "to_dict"
            },
            "default": {},
            "force_update": false,
            "id": false,
            "jsoner": {
                "function": "from_dict"
            },
            "name": "preferences",
            "option_others": false,
            "options": [],
            "placeholder": "Preferences",
            "required": false,
            "title": "Preferences",
            "type": "nested_object",
            "ui_element": "card",
            "unique": false,
            "verbs": []
        },
        {
            "adder": {
                "function": "list_adder",
                "kwargs": {
                    "unique": true
                }
            },
            "atype": [
                "stringlist"
            ],
            "auto_updater": true,
            "conversation": [],
            "default": {
                "args": [
                    "enterprise_url"
                ],
                "function": "copy_attribute"
            },
            "force_update": false,
            "id": false,
            "list_type": "url",
            "name": "origins",
            "option_others": false,
            "options": [],
            "placeholder": "Origins",
            "required": false,
            "title": "Origins",
            "type": "list",
            "ui_element": "tags",
            "unique": false,
            "verbs": []
        },
        {
            "auto_updater": true,
            "default": "__default__",
            "name": "sms_provider",
            "option_others": true,
            "options": [
                "__default__",
                "AmazonSMSSender",
                "TextLocalSMSSender",
                "AirtelSender"
            ],
            "type": "text"
        },
        {
            "auto_updater": true,
            "default": "__default__",
            "name": "email_provider",
            "option_others": true,
            "options": [
                "__default__",
                "MailgunSender",
                "SmtpSender",
                "SendGridSender"
            ],
            "type": "text"
        },
        {
            "auto_updater": true,
            "default": "__default__",
            "name": "push_provider",
            "options": [
                "__default__",
                "OneSignalMessaging",
                "GupshupWhatsAppSender"
            ],
            "type": "text"
        },
        {
            "auto_updater": true,
            "default": {},
            "name": "sms_provider_credentials",
            "type": "nested_object"
        },
        {
            "auto_updater": true,
            "default": {},
            "name": "email_provider_credentials",
            "type": "nested_object"
        },
        {
            "auto_updater": true,
            "default": {
                "function": "make_app_data"
            },
            "name": "app_data",
            "type": "nested_object"
        },
        {
            "name": "whatsapp_app_name",
            "type": "name"
        },
        {
            "dict_keys": [
                "facebook_app_id",
                "facebook_api_key",
                "instagram_app_id",
                "instagram_api_key",
                "youtube_app_id",
                "youtube_api_key",
                "twitter_app_id",
                "twitter_api_key",
                "whatsapp_app_name",
                "whatsapp_api_key",
                "sprinklr_client_id",
                "sprinklr_api_key",
                "sprinklr_campaign_id",
                "sprinklr_usernames",
                "sprinklr_url",
                "sprinklr_participant_id",
                "sprinklr_case_model",
                "gmb_avatar_name",
                "gmb_avatar_image",
                "user_api_expiry"
            ],
            "name": "social_media_credentials",
            "type": "nested_object"
        },
        {
            "auto_updater": true,
            "default": {},
            "name": "filter_map",
            "type": "nested_object"
        },
        {
            "default": false,
            "name": "do_algorithms",
            "type": "boolean"
        }
    ],
    "children": [
        [
            "i2ce_usage",
            null
        ]
    ],
    "data_type": "record_concurrency_large",
    "emails": [
        "email"
    ],
    "expand_attributes": false,
    "has_login": false,
    "ids": [
        "enterprise_id"
    ],
    "images": [
        "enterprise_logo"
    ],
    "mobile_numbers": [],
    "model_type": "default",
    "name": "enterprise",
    "names": [
        "name"
    ],
    "parents": [],
    "phone_numbers": [
        "phone_number"
    ],
    "plural": "enterprises",
    "preferences": {},
    "push_tokens": [],
    "quick_views": {
        "default": [
            "enterprise_id",
            "name",
            "enterprise_logo"
        ]
    },
    "times": [
        "created_at"
    ],
    "timezone": "UTC",
    "title": "Enterprise"
}
