{ 
    "name": "i2ce_invoice", 
    "data_type": "object_concurrency_large",  
    "has_login": false, 
    "parents": ["enterprise"],
    "timezone": "UTC",
    "attributes": [
        {
            "name":"timestamp",
            "default":{
                "function":"now"
            },
            "type": "timestamp",
            "auto_updater":true
        },
        {
            "name":"enterprise_id",
            "refers":"parents.enterprise.enterprise_id"
        },
        {
            "name": "description",
            "type": "text"
        },
        {
            "name":"transaction_type",
            "type":"category",
            "options":["payment","refund"],
            "required":true
        },
        {
            "name": "payment_id",
            "type": "text"
        },
        {
            "name":"invoice_id",
            "type":"text",
            "default": {
                "function": "make_uuid",
                "args": [
                    "enterprise_id","timestamp"
                ]
            },
            "id":true,
            "required":true
        },
        {
            "name":"status",
            "type":"category",
            "options":["initiated","aborted","authorized","success","failed"]
        },
        {
            "name":"failure_reason",
            "type":"text"
        },
        {
            "name":"amount",
            "type":"number",
            "required": true
        }
    ], 
    "allow_anonymous_view": false, 
    "plural": "i2ce_invoices", 
    "children": [], 
    "permissions": []
}