{
    "allow_anonymous_view": false,
    "attributes": [
        {
            "auto_updater": true,
            "default": {
                "args": [
                    "customer_id",
                    "product_id"
                ],
                "function": "make_uuid"
            },
            "id": true,
            "name": "interaction_id",
            "required": true,
            "title": "Interaction Id",
            "type": "text"
        },
        {
            "name": "stage",
            "refers": "parents.interaction_stage.name",
            "required": true
        },
        {
            "auto_updater": true,
            "default": {
                "function": "now"
            },
            "name": "created",
            "type": "timestamp"
        },
        {
            "auto_updater": true,
            "default": {
                "function": "now"
            },
            "force_update": true,
            "name": "updated",
            "type": "timestamp"
        },
        {
            "auto_update": true,
            "name": "channel",
            "options": [
                "website",
                "mobile",
                "email",
                "sms",
                "push_notification",
                "pos",
                "crm"
            ],
            "required": true,
            "type": "category"
        },
        {
            "name": "recommendation_id",
            "type": "text"
        },
        {
            "name": "available_price",
            "title": "Price of product available to the customer at the time of interaction",
            "type": "price"
        },
        {
            "default": 0,
            "name": "available_discount",
            "title": "Discount on the product at the time of interaction",
            "type": "discount"
        },
        {
            "default": 1,
            "name": "quantity",
            "placeholder": "The rating or the quantity of purchase, or a proposed quantity in case of an interest",
            "type": "number"
        },
        {
            "name": "interaction_details",
            "type": "description"
        },
	
        {
            "auto_updater": true,
            "default": {
                "args": [
                    "stage",
                    "updated",
                    "quantity",
                    "available_price",
                    "available_discount"
                ],
                "function": "add_to_history"
            },
            "dict_keys": [
                "stage",
                "updated",
                "quantity",
                "available_price",
                "available_discount"
            ],
            "force_update": true,
            "name": "interaction_history",
            "title": "History of Interactions",
            "type": "object_list"
        },
	{
            "default": "channel",
            "name": "interaction_channel_attribute",
            "title": "The interaction attribute which indicated which channel the interaction occurred in",
            "type": "text"
        }
    ],
    "data_type": "object_concurrency_large",
    "expand_attributes": true,
    "has_login": false,
    "ids": [
        "interaction_id"
    ],
    "model_type": "interaction",
    "name": "interaction",
    "names": [
        "stage"
    ],
    "parents": [
        "customer",
        "product",
        "interaction_stage"
    ],
    "plural": "interactions",
    "title": "Interaction Model"
}
